<?xml version="1.0" standalone="no"?>
<!DOCTYPE svg PUBLIC "-//W3C//DTD SVG 20010904//EN"
 "http://www.w3.org/TR/2001/REC-SVG-20010904/DTD/svg10.dtd">
<svg version="1.0" xmlns="http://www.w3.org/2000/svg"
 width="308.000000pt" height="308.000000pt" viewBox="0 0 308.000000 308.000000"
 preserveAspectRatio="xMidYMid meet">
<metadata>
Created by potrace 1.11, written by Peter Selinger 2001-2013
</metadata>
<g transform="translate(0.000000,308.000000) scale(0.100000,-0.100000)"
fill="#000000" stroke="none">
<path d="M733 2998 c-33 -16 -28 -29 5 -17 36 12 77 -2 108 -38 42 -48 38
-105 -11 -183 -48 -76 -99 -115 -210 -163 -114 -49 -187 -85 -207 -100 -30
-24 -47 -67 -43 -114 7 -88 88 -150 207 -160 l66 -6 57 54 c73 69 169 196 206
273 27 55 47 128 41 149 -1 5 2 6 7 3 16 -10 0 -109 -28 -170 -31 -67 -87
-141 -211 -276 -120 -130 -127 -139 -176 -211 -84 -126 -118 -260 -94 -374
l11 -54 -59 -123 c-71 -146 -94 -235 -95 -366 -6 -562 347 -959 913 -1028 102
-13 364 -6 411 10 8 3 28 7 44 10 95 16 191 42 265 72 64 27 56 30 -32 10
-347 -79 -682 -40 -893 104 -208 143 -347 419 -346 690 1 301 177 586 453 734
63 34 128 62 173 72 301 73 542 -1 676 -209 98 -151 97 -307 -1 -455 -59 -88
-165 -154 -288 -181 -80 -17 -123 -14 -178 14 -80 40 -117 119 -95 201 29 107
158 152 284 99 18 -7 18 -6 -1 31 -42 81 -97 114 -193 115 -92 2 -165 -26
-225 -86 -80 -80 -101 -167 -66 -280 47 -155 181 -239 377 -236 322 4 573 214
611 511 26 199 -33 379 -168 518 -207 212 -541 293 -888 216 -226 -51 -387
-140 -557 -311 -99 -99 -102 -101 -108 -75 -23 108 65 311 200 461 48 52 49
53 65 33 26 -32 95 -62 143 -62 65 0 142 43 184 104 97 141 102 363 13 554
-69 148 -263 282 -347 240z"/>
<path d="M1373 2693 c-13 -3 -23 -5 -23 -6 0 -1 7 -24 16 -52 29 -95 37 -233
21 -355 l-8 -55 68 0 c246 -2 508 -98 716 -263 208 -166 378 -467 404 -714 23
-217 -4 -391 -87 -563 -50 -104 -95 -170 -199 -291 -63 -73 -76 -93 -52 -78
396 251 631 652 629 1071 -1 119 -27 298 -58 398 -46 148 -144 321 -254 450
-184 215 -427 361 -721 431 -91 22 -137 27 -270 28 -88 2 -170 1 -182 -1z"/>
</g>
</svg>
